Data Visualisation
…
annual_esc <- esc %>% 
  separate(sampleDate, into = c("Year", "Month", "Day"), sep = "-") %>% 
  mutate(Year = as.numeric(Year)) %>% 
  group_by(Species, SASAP.Region, Year) %>% 
  summarise(escapement = sum(DailyCount)) %>% 
  filter(Species %in% c("Chinook", "Sockeye", "Chum", "Coho", "Pink"))

## `summarise()` regrouping output by 'Species', 'SASAP.Region' (override with `.groups` argument)

annual_esc

## # A tibble: 1,484 x 4
## # Groups:   Species, SASAP.Region [39]
##    Species SASAP.Region                           Year escapement
##    <chr>   <chr>                                 <dbl>      <int>
##  1 Chinook Alaska Peninsula and Aleutian Islands  1974       1092
##  2 Chinook Alaska Peninsula and Aleutian Islands  1975       1917
##  3 Chinook Alaska Peninsula and Aleutian Islands  1976       3045
##  4 Chinook Alaska Peninsula and Aleutian Islands  1977       4844
##  5 Chinook Alaska Peninsula and Aleutian Islands  1978       3901
##  6 Chinook Alaska Peninsula and Aleutian Islands  1979      10463
##  7 Chinook Alaska Peninsula and Aleutian Islands  1980       4506
##  8 Chinook Alaska Peninsula and Aleutian Islands  1981       5046
##  9 Chinook Alaska Peninsula and Aleutian Islands  1982       6503
## 10 Chinook Alaska Peninsula and Aleutian Islands  1983      11589
## #  with 1,474 more rows
…
kodiak_esc <- annual_esc %>% 
  filter(SASAP.Region == "Kodiak")
kodiak_esc

## # A tibble: 412 x 4
## # Groups:   Species, SASAP.Region [5]
##    Species SASAP.Region  Year escapement
##    <chr>   <chr>        <dbl>      <int>
##  1 Chinook Kodiak        1926          1
##  2 Chinook Kodiak        1928       6002
##  3 Chinook Kodiak        1929       9837
##  4 Chinook Kodiak        1930       9213
##  5 Chinook Kodiak        1931       3283
##  6 Chinook Kodiak        1932       4881
##  7 Chinook Kodiak        1933       8107
##  8 Chinook Kodiak        1934      11573
##  9 Chinook Kodiak        1935       8151
## 10 Chinook Kodiak        1936       7507
## #  with 402 more rows
…
